lab2.sim/sim_1/behav/xsim/simulate.log
Vivado Simulator 2019.1
Time resolution is 1 ps
good! a:   0 b:   0 y:  0 exp:  0
good! a:   1 b:   1 y:  2 exp:  2
good! a:   8 b:   4 y:  4 exp:  4
good! a:  27 b:   9 y:  6 exp:  6
good! a:  64 b:  16 y:  8 exp:  8
good! a: 125 b:  25 y: 10 exp: 10
good! a: 216 b:  36 y: 12 exp: 12
good! a:   0 b:  49 y:  7 exp:  7
good! a:   1 b:  64 y:  9 exp:  9
good! a:   8 b:  81 y: 11 exp: 11
good! a:  27 b: 100 y: 13 exp: 13
good! a:  64 b: 121 y: 15 exp: 15
good! a: 125 b: 144 y: 17 exp: 17
good! a: 216 b: 169 y: 19 exp: 19
good! a:   0 b: 196 y: 14 exp: 14
good! a:   1 b: 225 y: 16 exp: 16
good! a:   0 b:   0 y:  0 exp:  0
bad! a:   0 b:   1 y:  1 exp:  0
bad! a:   0 b:   2 y:  1 exp:  0
bad! a:   0 b:   3 y:  1 exp:  0
bad! a:   0 b:   4 y:  2 exp:  0
bad! a:   0 b:   5 y:  2 exp:  0
bad! a:   0 b:   6 y:  2 exp:  0
bad! a:   0 b:   7 y:  2 exp:  0
bad! a:   0 b:   8 y:  2 exp:  0
bad! a:   0 b:   9 y:  3 exp:  0
bad! a:   0 b:  10 y:  3 exp:  0
bad! a:   0 b:  11 y:  3 exp:  0
bad! a:   0 b:  12 y:  3 exp:  0
bad! a:   0 b:  13 y:  3 exp:  0
bad! a:   0 b:  14 y:  3 exp:  0
bad! a:   0 b:  15 y:  3 exp:  0
bad! a:   0 b:  16 y:  4 exp:  0
bad! a:   0 b:  17 y:  4 exp:  0
bad! a:   0 b:  18 y:  4 exp:  0
bad! a:   0 b:  19 y:  4 exp:  0
bad! a:   0 b:  20 y:  4 exp:  0
bad! a:   0 b:  21 y:  4 exp:  0
bad! a:   0 b:  22 y:  4 exp:  0
bad! a:   0 b:  23 y:  4 exp:  0
bad! a:   0 b:  24 y:  4 exp:  0
bad! a:   0 b:  25 y:  5 exp:  0
bad! a:   0 b:  26 y:  5 exp:  0
bad! a:   0 b:  27 y:  5 exp:  0
bad! a:   0 b:  28 y:  5 exp:  0
bad! a:   0 b:  29 y:  5 exp:  0
bad! a:   0 b:  30 y:  5 exp:  0
bad! a:   0 b:  31 y:  5 exp:  0
bad! a:   0 b:  32 y:  5 exp:  0
bad! a:   0 b:  33 y:  5 exp:  0
bad! a:   0 b:  34 y:  5 exp:  0
bad! a:   0 b:  35 y:  5 exp:  0
bad! a:   0 b:  36 y:  6 exp:  0
bad! a:   0 b:  37 y:  6 exp:  0
bad! a:   0 b:  38 y:  6 exp:  0
bad! a:   0 b:  39 y:  6 exp:  0
bad! a:   0 b:  40 y:  6 exp:  0
bad! a:   0 b:  41 y:  6 exp:  0
bad! a:   0 b:  42 y:  6 exp:  0
bad! a:   0 b:  43 y:  6 exp:  0
bad! a:   0 b:  44 y:  6 exp:  0
bad! a:   0 b:  45 y:  6 exp:  0
bad! a:   0 b:  46 y:  6 exp:  0
bad! a:   0 b:  47 y:  6 exp:  0
bad! a:   0 b:  48 y:  6 exp:  0
bad! a:   0 b:  49 y:  7 exp:  0
bad! a:   0 b:  50 y:  7 exp:  0
bad! a:   0 b:  51 y:  7 exp:  0
bad! a:   0 b:  52 y:  7 exp:  0
bad! a:   0 b:  53 y:  7 exp:  0
bad! a:   0 b:  54 y:  7 exp:  0
bad! a:   0 b:  55 y:  7 exp:  0
bad! a:   0 b:  56 y:  7 exp:  0
bad! a:   0 b:  57 y:  7 exp:  0
bad! a:   0 b:  58 y:  7 exp:  0
bad! a:   0 b:  59 y:  7 exp:  0
bad! a:   0 b:  60 y:  7 exp:  0
bad! a:   0 b:  61 y:  7 exp:  0
bad! a:   0 b:  62 y:  7 exp:  0
bad! a:   0 b:  63 y:  7 exp:  0
bad! a:   0 b:  64 y:  8 exp:  0
bad! a:   0 b:  65 y:  8 exp:  0
bad! a:   0 b:  66 y:  8 exp:  0
bad! a:   0 b:  67 y:  8 exp:  0
bad! a:   0 b:  68 y:  8 exp:  0
bad! a:   0 b:  69 y:  8 exp:  0
bad! a:   0 b:  70 y:  8 exp:  0
bad! a:   0 b:  71 y:  8 exp:  0
bad! a:   0 b:  72 y:  8 exp:  0
bad! a:   0 b:  73 y:  8 exp:  0
bad! a:   0 b:  74 y:  8 exp:  0
bad! a:   0 b:  75 y:  8 exp:  0
bad! a:   0 b:  76 y:  8 exp:  0
bad! a:   0 b:  77 y:  8 exp:  0
bad! a:   0 b:  78 y:  8 exp:  0
bad! a:   0 b:  79 y:  8 exp:  0
bad! a:   0 b:  80 y:  8 exp:  0
bad! a:   0 b:  81 y:  9 exp:  0
bad! a:   0 b:  82 y:  9 exp:  0
bad! a:   0 b:  83 y:  9 exp:  0
bad! a:   0 b:  84 y:  9 exp:  0
bad! a:   0 b:  85 y:  9 exp:  0
bad! a:   0 b:  86 y:  9 exp:  0
bad! a:   0 b:  87 y:  9 exp:  0
bad! a:   0 b:  88 y:  9 exp:  0
bad! a:   0 b:  89 y:  9 exp:  0
bad! a:   0 b:  90 y:  9 exp:  0
bad! a:   0 b:  91 y:  9 exp:  0
bad! a:   0 b:  92 y:  9 exp:  0
bad! a:   0 b:  93 y:  9 exp:  0
bad! a:   0 b:  94 y:  9 exp:  0
bad! a:   0 b:  95 y:  9 exp:  0
bad! a:   0 b:  96 y:  9 exp:  0
bad! a:   0 b:  97 y:  9 exp:  0
bad! a:   0 b:  98 y:  9 exp:  0
bad! a:   0 b:  99 y:  9 exp:  0
bad! a:   0 b: 100 y: 10 exp:  0
bad! a:   0 b: 101 y: 10 exp:  0
bad! a:   0 b: 102 y: 10 exp:  0
bad! a:   0 b: 103 y: 10 exp:  0
bad! a:   0 b: 104 y: 10 exp:  0
bad! a:   0 b: 105 y: 10 exp:  0
bad! a:   0 b: 106 y: 10 exp:  0
bad! a:   0 b: 107 y: 10 exp:  0
bad! a:   0 b: 108 y: 10 exp:  0
bad! a:   0 b: 109 y: 10 exp:  0
bad! a:   0 b: 110 y: 10 exp:  0
bad! a:   0 b: 111 y: 10 exp:  0
bad! a:   0 b: 112 y: 10 exp:  0
bad! a:   0 b: 113 y: 10 exp:  0
bad! a:   0 b: 114 y: 10 exp:  0
bad! a:   0 b: 115 y: 10 exp:  0
bad! a:   0 b: 116 y: 10 exp:  0
bad! a:   0 b: 117 y: 10 exp:  0
bad! a:   0 b: 118 y: 10 exp:  0
bad! a:   0 b: 119 y: 10 exp:  0
bad! a:   0 b: 120 y: 10 exp:  0
bad! a:   0 b: 121 y: 11 exp:  0
bad! a:   0 b: 122 y: 11 exp:  0
bad! a:   0 b: 123 y: 11 exp:  0
bad! a:   0 b: 124 y: 11 exp:  0
bad! a:   0 b: 125 y: 11 exp:  0
bad! a:   0 b: 126 y: 11 exp:  0
bad! a:   0 b: 127 y: 11 exp:  0
bad! a:   0 b: 128 y: 11 exp:  0
bad! a:   0 b: 129 y: 11 exp:  0
bad! a:   0 b: 130 y: 11 exp:  0
bad! a:   0 b: 131 y: 11 exp:  0
bad! a:   0 b: 132 y: 11 exp:  0
bad! a:   0 b: 133 y: 11 exp:  0
bad! a:   0 b: 134 y: 11 exp:  0
bad! a:   0 b: 135 y: 11 exp:  0
bad! a:   0 b: 136 y: 11 exp:  0
bad! a:   0 b: 137 y: 11 exp:  0
bad! a:   0 b: 138 y: 11 exp:  0
bad! a:   0 b: 139 y: 11 exp:  0
bad! a:   0 b: 140 y: 11 exp:  0
bad! a:   0 b: 141 y: 11 exp:  0
bad! a:   0 b: 142 y: 11 exp:  0
bad! a:   0 b: 143 y: 11 exp:  0
bad! a:   0 b: 144 y: 12 exp:  0
bad! a:   0 b: 145 y: 12 exp:  0
bad! a:   0 b: 146 y: 12 exp:  0
bad! a:   0 b: 147 y: 12 exp:  0
bad! a:   0 b: 148 y: 12 exp:  0
bad! a:   0 b: 149 y: 12 exp:  0
bad! a:   0 b: 150 y: 12 exp:  0
bad! a:   0 b: 151 y: 12 exp:  0
bad! a:   0 b: 152 y: 12 exp:  0
bad! a:   0 b: 153 y: 12 exp:  0
bad! a:   0 b: 154 y: 12 exp:  0
bad! a:   0 b: 155 y: 12 exp:  0
bad! a:   0 b: 156 y: 12 exp:  0
bad! a:   0 b: 157 y: 12 exp:  0
bad! a:   0 b: 158 y: 12 exp:  0
bad! a:   0 b: 159 y: 12 exp:  0
bad! a:   0 b: 160 y: 12 exp:  0
bad! a:   0 b: 161 y: 12 exp:  0
bad! a:   0 b: 162 y: 12 exp:  0
bad! a:   0 b: 163 y: 12 exp:  0
bad! a:   0 b: 164 y: 12 exp:  0
bad! a:   0 b: 165 y: 12 exp:  0
bad! a:   0 b: 166 y: 12 exp:  0
bad! a:   0 b: 167 y: 12 exp:  0
bad! a:   0 b: 168 y: 12 exp:  0
bad! a:   0 b: 169 y: 13 exp:  0
bad! a:   0 b: 170 y: 13 exp:  0
bad! a:   0 b: 171 y: 13 exp:  0
bad! a:   0 b: 172 y: 13 exp:  0
bad! a:   0 b: 173 y: 13 exp:  0
bad! a:   0 b: 174 y: 13 exp:  0
bad! a:   0 b: 175 y: 13 exp:  0
bad! a:   0 b: 176 y: 13 exp:  0
bad! a:   0 b: 177 y: 13 exp:  0
bad! a:   0 b: 178 y: 13 exp:  0
bad! a:   0 b: 179 y: 13 exp:  0
bad! a:   0 b: 180 y: 13 exp:  0
bad! a:   0 b: 181 y: 13 exp:  0
bad! a:   0 b: 182 y: 13 exp:  0
bad! a:   0 b: 183 y: 13 exp:  0
bad! a:   0 b: 184 y: 13 exp:  0
bad! a:   0 b: 185 y: 13 exp:  0
bad! a:   0 b: 186 y: 13 exp:  0
bad! a:   0 b: 187 y: 13 exp:  0
bad! a:   0 b: 188 y: 13 exp:  0
bad! a:   0 b: 189 y: 13 exp:  0
bad! a:   0 b: 190 y: 13 exp:  0
bad! a:   0 b: 191 y: 13 exp:  0
bad! a:   0 b: 192 y: 13 exp:  0
bad! a:   0 b: 193 y: 13 exp:  0
bad! a:   0 b: 194 y: 13 exp:  0
bad! a:   0 b: 195 y: 13 exp:  0
bad! a:   0 b: 196 y: 14 exp:  0
bad! a:   0 b: 197 y: 14 exp:  0
bad! a:   0 b: 198 y: 14 exp:  0
bad! a:   0 b: 199 y: 14 exp:  0
bad! a:   0 b: 200 y: 14 exp:  0
bad! a:   0 b: 201 y: 14 exp:  0
bad! a:   0 b: 202 y: 14 exp:  0
bad! a:   0 b: 203 y: 14 exp:  0
bad! a:   0 b: 204 y: 14 exp:  0
bad! a:   0 b: 205 y: 14 exp:  0
bad! a:   0 b: 206 y: 14 exp:  0
bad! a:   0 b: 207 y: 14 exp:  0
bad! a:   0 b: 208 y: 14 exp:  0
bad! a:   0 b: 209 y: 14 exp:  0
bad! a:   0 b: 210 y: 14 exp:  0
bad! a:   0 b: 211 y: 14 exp:  0
bad! a:   0 b: 212 y: 14 exp:  0
bad! a:   0 b: 213 y: 14 exp:  0
bad! a:   0 b: 214 y: 14 exp:  0
bad! a:   0 b: 215 y: 14 exp:  0
bad! a:   0 b: 216 y: 14 exp:  0
bad! a:   0 b: 217 y: 14 exp:  0
bad! a:   0 b: 218 y: 14 exp:  0
bad! a:   0 b: 219 y: 14 exp:  0
bad! a:   0 b: 220 y: 14 exp:  0
bad! a:   0 b: 221 y: 14 exp:  0
bad! a:   0 b: 222 y: 14 exp:  0
bad! a:   0 b: 223 y: 14 exp:  0
bad! a:   0 b: 224 y: 14 exp:  0
bad! a:   0 b: 225 y: 15 exp:  0
bad! a:   0 b: 226 y: 15 exp:  0
bad! a:   0 b: 227 y: 15 exp:  0
bad! a:   0 b: 228 y: 15 exp:  0
bad! a:   0 b: 229 y: 15 exp:  0
bad! a:   0 b: 230 y: 15 exp:  0
bad! a:   0 b: 231 y: 15 exp:  0
bad! a:   0 b: 232 y: 15 exp:  0
bad! a:   0 b: 233 y: 15 exp:  0
bad! a:   0 b: 234 y: 15 exp:  0
bad! a:   0 b: 235 y: 15 exp:  0
bad! a:   0 b: 236 y: 15 exp:  0
bad! a:   0 b: 237 y: 15 exp:  0
bad! a:   0 b: 238 y: 15 exp:  0
bad! a:   0 b: 239 y: 15 exp:  0
bad! a:   0 b: 240 y: 15 exp:  0
bad! a:   0 b: 241 y: 15 exp:  0
bad! a:   0 b: 242 y: 15 exp:  0
bad! a:   0 b: 243 y: 15 exp:  0
bad! a:   0 b: 244 y: 15 exp:  0
bad! a:   0 b: 245 y: 15 exp:  0
bad! a:   0 b: 246 y: 15 exp:  0
bad! a:   0 b: 247 y: 15 exp:  0
bad! a:   0 b: 248 y: 15 exp:  0
bad! a:   0 b: 249 y: 15 exp:  0
bad! a:   0 b: 250 y: 15 exp:  0
bad! a:   0 b: 251 y: 15 exp:  0
bad! a:   0 b: 252 y: 15 exp:  0
bad! a:   0 b: 253 y: 15 exp:  0
bad! a:   0 b: 254 y: 15 exp:  0
bad! a:   0 b: 255 y: 15 exp:  0
$stop called at time : 138770 ns : File "C:/Users/truem/lab2/lab2.srcs/sim_1/new/mult_tb.v" Line 109
