lab2.sim/sim_1/behav/xsim/simulate.log
Vivado Simulator 2019.1
Time resolution is 1 ps
good! a:   0 b:   0 y:  0 exp:  0
good! a:   1 b:   1 y:  2 exp:  2
good! a:   8 b:   4 y:  4 exp:  4
good! a:  27 b:   9 y:  6 exp:  6
good! a:  64 b:  16 y:  8 exp:  8
good! a: 125 b:  25 y: 10 exp: 10
good! a: 216 b:  36 y: 12 exp: 12
good! a:   0 b:  49 y:  7 exp:  7
good! a:   1 b:  64 y:  9 exp:  9
good! a:   8 b:  81 y: 11 exp: 11
good! a:  27 b: 100 y: 13 exp: 13
good! a:  64 b: 121 y: 15 exp: 15
good! a: 125 b: 144 y: 17 exp: 17
good! a: 216 b: 169 y: 19 exp: 19
good! a:   0 b: 196 y: 14 exp: 14
good! a:   1 b: 225 y: 16 exp: 16
$stop called at time : 8210 ns : File "C:/Users/truem/lab2/lab2.srcs/sim_1/new/mult_tb.v" Line 109
